ITA_durka_mussolini = {
	color = rgb { 153 0 0 }
	color_ui = rgb { 153 0 0 }
}

ITA_new_state = {
	color = rgb { 143 12 125 }
	color_ui = rgb { 143 12 125 }
}

HUN_is_puppet_of_ita = {
	color = rgb { 67  127  63 }
	color_ui = rgb { 67  127  63 }
}